EESchema Schematic File Version 2
LIBS:power
LIBS:device
LIBS:transistors
LIBS:conn
LIBS:linear
LIBS:regul
LIBS:74xx
LIBS:cmos4000
LIBS:adc-dac
LIBS:memory
LIBS:xilinx
LIBS:microcontrollers
LIBS:dsp
LIBS:microchip
LIBS:analog_switches
LIBS:motorola
LIBS:texas
LIBS:intel
LIBS:audio
LIBS:interface
LIBS:digital-audio
LIBS:philips
LIBS:display
LIBS:cypress
LIBS:siliconi
LIBS:opto
LIBS:atmel
LIBS:contrib
LIBS:valves
LIBS:Trixie 1-cache
EELAYER 25 0
EELAYER END
$Descr A4 11693 8268
encoding utf-8
Sheet 1 1
Title ""
Date ""
Rev ""
Comp ""
Comment1 ""
Comment2 ""
Comment3 ""
Comment4 ""
$EndDescr
$Comp
L ATMEGA8A-A IC?
U 1 1 59BAC664
P 2050 5200
F 0 "IC?" H 1300 6400 40  0000 L BNN
F 1 "ATMEGA8A-A" H 2550 3650 40  0000 L BNN
F 2 "TQFP32" H 2050 5200 30  0000 C CIN
F 3 "" H 2050 5200 60  0000 C CNN
	1    2050 5200
	1    0    0    -1  
$EndComp
$Comp
L CONN_01X04 P?
U 1 1 59BE2DDB
P 10750 1550
F 0 "P?" H 10750 1800 50  0000 C CNN
F 1 "BMP180" V 10850 1550 50  0000 C CNN
F 2 "" H 10750 1550 60  0000 C CNN
F 3 "" H 10750 1550 60  0000 C CNN
	1    10750 1550
	1    0    0    -1  
$EndComp
Text Label 10550 1400 2    60   ~ 0
3.3v
Text Label 10550 1500 2    60   ~ 0
gnd
Text Label 10550 1600 2    60   ~ 0
p_scl
Text Label 10550 1700 2    60   ~ 0
p_sda
$Comp
L CONN_01X08 P?
U 1 1 59BE49F2
P 10750 2300
F 0 "P?" H 10750 2750 50  0000 C CNN
F 1 "NRF24L01" V 10850 2300 50  0000 C CNN
F 2 "" H 10750 2300 60  0000 C CNN
F 3 "" H 10750 2300 60  0000 C CNN
	1    10750 2300
	1    0    0    -1  
$EndComp
Text Label 10550 1950 2    60   ~ 0
n_irq
Text Label 10550 2050 2    60   ~ 0
n_mosi
Text Label 10550 2150 2    60   ~ 0
n_csn
Text Label 10550 2250 2    60   ~ 0
3.3v
Text Label 10550 2350 2    60   ~ 0
gnd
Text Label 10550 2450 2    60   ~ 0
n_ce
Text Label 10550 2550 2    60   ~ 0
n_sck
Text Label 10550 2650 2    60   ~ 0
n_miso
Text Notes 11050 1950 3    60   ~ 0
1.9v – 3.6v\n5v tolerant signal
Text Notes 11050 1800 1    60   ~ 0
1.8v – 3.6v\n5v tolerant signal
$Comp
L CONN_01X02 P?
U 1 1 59BE9367
P 10750 3200
F 0 "P?" H 10750 3350 50  0000 C CNN
F 1 "led 1" V 10850 3200 50  0000 C CNN
F 2 "" H 10750 3200 60  0000 C CNN
F 3 "" H 10750 3200 60  0000 C CNN
	1    10750 3200
	1    0    0    -1  
$EndComp
$Comp
L CONN_01X02 P?
U 1 1 59BE93A8
P 10750 3550
F 0 "P?" H 10750 3700 50  0000 C CNN
F 1 "led 2" V 10850 3550 50  0000 C CNN
F 2 "" H 10750 3550 60  0000 C CNN
F 3 "" H 10750 3550 60  0000 C CNN
	1    10750 3550
	1    0    0    -1  
$EndComp
Text Label 10550 3250 2    60   ~ 0
gnd
Text Label 10550 3600 2    60   ~ 0
gnd
Text Label 10550 3150 2    60   ~ 0
led_1
Text Label 10550 3500 2    60   ~ 0
led_2
$Comp
L CONN_01X02 P?
U 1 1 59BE96D1
P 10750 3900
F 0 "P?" H 10750 4050 50  0000 C CNN
F 1 "led 3" V 10850 3900 50  0000 C CNN
F 2 "" H 10750 3900 60  0000 C CNN
F 3 "" H 10750 3900 60  0000 C CNN
	1    10750 3900
	1    0    0    -1  
$EndComp
$Comp
L CONN_01X02 P?
U 1 1 59BE972A
P 10750 4250
F 0 "P?" H 10750 4400 50  0000 C CNN
F 1 "led 4" V 10850 4250 50  0000 C CNN
F 2 "" H 10750 4250 60  0000 C CNN
F 3 "" H 10750 4250 60  0000 C CNN
	1    10750 4250
	1    0    0    -1  
$EndComp
Text Label 10550 3950 2    60   ~ 0
gnd
Text Label 10550 4300 2    60   ~ 0
gnd
Text Label 10550 4200 2    60   ~ 0
3.3v
Text Label 10550 3850 2    60   ~ 0
3.3v
$Comp
L LM324 U?
U 1 1 59BED53F
P 7950 1300
F 0 "U?" H 8000 1500 60  0000 C CNN
F 1 "LM324" H 8100 1100 50  0000 C CNN
F 2 "" H 7950 1300 60  0000 C CNN
F 3 "" H 7950 1300 60  0000 C CNN
	1    7950 1300
	1    0    0    -1  
$EndComp
Text Label 7850 1700 0    60   ~ 0
gnd
Text Label 7850 900  0    60   ~ 0
3.3v
$Comp
L R R?
U 1 1 59C01BAD
P 7850 1800
F 0 "R?" V 7930 1800 50  0000 C CNN
F 1 "R" V 7850 1800 50  0000 C CNN
F 2 "" V 7780 1800 30  0000 C CNN
F 3 "" H 7850 1800 30  0000 C CNN
	1    7850 1800
	0    1    1    0   
$EndComp
$Comp
L C C?
U 1 1 59C01F6D
P 7850 2050
F 0 "C?" H 7875 2150 50  0000 L CNN
F 1 "C" H 7875 1950 50  0000 L CNN
F 2 "" H 7888 1900 30  0000 C CNN
F 3 "" H 7850 2050 60  0000 C CNN
	1    7850 2050
	0    1    1    0   
$EndComp
$Comp
L R R?
U 1 1 59C01FDC
P 7300 2400
F 0 "R?" V 7380 2400 50  0000 C CNN
F 1 "R" V 7300 2400 50  0000 C CNN
F 2 "" V 7230 2400 30  0000 C CNN
F 3 "" H 7300 2400 30  0000 C CNN
	1    7300 2400
	1    0    0    -1  
$EndComp
Text Label 7300 2550 3    60   ~ 0
gnd
$Comp
L C C?
U 1 1 59C0205F
P 7050 1200
F 0 "C?" H 7075 1300 50  0000 L CNN
F 1 "1uf" H 7075 1100 50  0000 L CNN
F 2 "" H 7088 1050 30  0000 C CNN
F 3 "" H 7050 1200 60  0000 C CNN
	1    7050 1200
	0    1    1    0   
$EndComp
Wire Wire Line
	7700 1800 7300 1800
Wire Wire Line
	7300 1400 7300 2250
Wire Wire Line
	7300 1400 7450 1400
Wire Wire Line
	8450 1300 8550 1300
Wire Wire Line
	8550 1300 8550 2150
Wire Wire Line
	8550 1800 8000 1800
Wire Wire Line
	7300 2050 7700 2050
Connection ~ 7300 1800
Wire Wire Line
	8550 2050 8000 2050
Connection ~ 8550 1800
Connection ~ 7300 2050
Wire Wire Line
	7200 1200 7450 1200
$Comp
L R R?
U 1 1 59C0248B
P 6500 1200
F 0 "R?" V 6580 1200 50  0000 C CNN
F 1 "R" V 6500 1200 50  0000 C CNN
F 2 "" V 6430 1200 30  0000 C CNN
F 3 "" H 6500 1200 30  0000 C CNN
	1    6500 1200
	0    1    1    0   
$EndComp
Text Label 6350 1200 2    60   ~ 0
3.3v
Wire Wire Line
	6650 1200 6900 1200
$Comp
L C C?
U 1 1 59C02537
P 8550 2300
F 0 "C?" H 8575 2400 50  0000 L CNN
F 1 "1uf" H 8575 2200 50  0000 L CNN
F 2 "" H 8588 2150 30  0000 C CNN
F 3 "" H 8550 2300 60  0000 C CNN
	1    8550 2300
	-1   0    0    1   
$EndComp
Connection ~ 8550 2050
$Comp
L R R?
U 1 1 59C025F1
P 8550 2750
F 0 "R?" V 8630 2750 50  0000 C CNN
F 1 "510k" V 8550 2750 50  0000 C CNN
F 2 "" V 8480 2750 30  0000 C CNN
F 3 "" H 8550 2750 30  0000 C CNN
	1    8550 2750
	1    0    0    -1  
$EndComp
Wire Wire Line
	8550 2600 8550 2450
Text Label 8550 2900 3    60   ~ 0
gnd
$Comp
L R R?
U 1 1 59C0269B
P 8300 2550
F 0 "R?" V 8380 2550 50  0000 C CNN
F 1 "1k" V 8300 2550 50  0000 C CNN
F 2 "" V 8230 2550 30  0000 C CNN
F 3 "" H 8300 2550 30  0000 C CNN
	1    8300 2550
	0    1    1    0   
$EndComp
Wire Wire Line
	8450 2550 8550 2550
Connection ~ 8550 2550
$Comp
L CONN_01X02 P?
U 1 1 59C02EA0
P 10750 4600
F 0 "P?" H 10750 4750 50  0000 C CNN
F 1 "PhR 1" V 10850 4600 50  0000 C CNN
F 2 "" H 10750 4600 60  0000 C CNN
F 3 "" H 10750 4600 60  0000 C CNN
	1    10750 4600
	1    0    0    -1  
$EndComp
$Comp
L CONN_01X02 P?
U 1 1 59C031B1
P 10750 4950
F 0 "P?" H 10750 5100 50  0000 C CNN
F 1 "PhR 2" V 10850 4950 50  0000 C CNN
F 2 "" H 10750 4950 60  0000 C CNN
F 3 "" H 10750 4950 60  0000 C CNN
	1    10750 4950
	1    0    0    -1  
$EndComp
$Comp
L CONN_01X02 P?
U 1 1 59C03236
P 10750 5300
F 0 "P?" H 10750 5450 50  0000 C CNN
F 1 "PhR 3" V 10850 5300 50  0000 C CNN
F 2 "" H 10750 5300 60  0000 C CNN
F 3 "" H 10750 5300 60  0000 C CNN
	1    10750 5300
	1    0    0    -1  
$EndComp
$Comp
L CONN_01X02 P?
U 1 1 59C03367
P 10750 5650
F 0 "P?" H 10750 5800 50  0000 C CNN
F 1 "PhR 4" V 10850 5650 50  0000 C CNN
F 2 "" H 10750 5650 60  0000 C CNN
F 3 "" H 10750 5650 60  0000 C CNN
	1    10750 5650
	1    0    0    -1  
$EndComp
Text Label 10550 4650 2    60   ~ 0
gnd
Text Label 10550 5000 2    60   ~ 0
gnd
Text Label 10550 5350 2    60   ~ 0
gnd
Text Label 10550 5700 2    60   ~ 0
gnd
Text Label 10550 4550 2    60   ~ 0
photoresistor1
Text Label 10550 4900 2    60   ~ 0
photoresistor2
Text Label 10550 5250 2    60   ~ 0
photoresistor3
Text Label 10550 5600 2    60   ~ 0
photoresistor4
Text Label 6750 1200 3    60   ~ 0
photoresistor1
Text Label 8150 2550 2    60   ~ 0
pulse1
$Comp
L LM324 U?
U 2 1 59C04079
P 8050 3450
F 0 "U?" H 8100 3650 60  0000 C CNN
F 1 "LM324" H 8200 3250 50  0000 C CNN
F 2 "" H 8050 3450 60  0000 C CNN
F 3 "" H 8050 3450 60  0000 C CNN
	2    8050 3450
	1    0    0    -1  
$EndComp
Text Label 7950 3850 0    60   ~ 0
gnd
Text Label 7950 3050 0    60   ~ 0
3.3v
$Comp
L R R?
U 1 1 59C04081
P 7950 3950
F 0 "R?" V 8030 3950 50  0000 C CNN
F 1 "R" V 7950 3950 50  0000 C CNN
F 2 "" V 7880 3950 30  0000 C CNN
F 3 "" H 7950 3950 30  0000 C CNN
	1    7950 3950
	0    1    1    0   
$EndComp
$Comp
L C C?
U 1 1 59C04087
P 7950 4200
F 0 "C?" H 7975 4300 50  0000 L CNN
F 1 "C" H 7975 4100 50  0000 L CNN
F 2 "" H 7988 4050 30  0000 C CNN
F 3 "" H 7950 4200 60  0000 C CNN
	1    7950 4200
	0    1    1    0   
$EndComp
$Comp
L R R?
U 1 1 59C0408D
P 7400 4550
F 0 "R?" V 7480 4550 50  0000 C CNN
F 1 "R" V 7400 4550 50  0000 C CNN
F 2 "" V 7330 4550 30  0000 C CNN
F 3 "" H 7400 4550 30  0000 C CNN
	1    7400 4550
	1    0    0    -1  
$EndComp
Text Label 7400 4700 3    60   ~ 0
gnd
$Comp
L C C?
U 1 1 59C04094
P 7150 3350
F 0 "C?" H 7175 3450 50  0000 L CNN
F 1 "1uf" H 7175 3250 50  0000 L CNN
F 2 "" H 7188 3200 30  0000 C CNN
F 3 "" H 7150 3350 60  0000 C CNN
	1    7150 3350
	0    1    1    0   
$EndComp
Wire Wire Line
	7800 3950 7400 3950
Wire Wire Line
	7400 3550 7400 4400
Wire Wire Line
	7400 3550 7550 3550
Wire Wire Line
	8550 3450 8650 3450
Wire Wire Line
	8650 3450 8650 4300
Wire Wire Line
	8650 3950 8100 3950
Wire Wire Line
	7400 4200 7800 4200
Connection ~ 7400 3950
Wire Wire Line
	8650 4200 8100 4200
Connection ~ 8650 3950
Connection ~ 7400 4200
Wire Wire Line
	7300 3350 7550 3350
$Comp
L R R?
U 1 1 59C040A6
P 6600 3350
F 0 "R?" V 6680 3350 50  0000 C CNN
F 1 "R" V 6600 3350 50  0000 C CNN
F 2 "" V 6530 3350 30  0000 C CNN
F 3 "" H 6600 3350 30  0000 C CNN
	1    6600 3350
	0    1    1    0   
$EndComp
Text Label 6450 3350 2    60   ~ 0
3.3v
Wire Wire Line
	6750 3350 7000 3350
$Comp
L C C?
U 1 1 59C040AE
P 8650 4450
F 0 "C?" H 8675 4550 50  0000 L CNN
F 1 "1uf" H 8675 4350 50  0000 L CNN
F 2 "" H 8688 4300 30  0000 C CNN
F 3 "" H 8650 4450 60  0000 C CNN
	1    8650 4450
	-1   0    0    1   
$EndComp
Connection ~ 8650 4200
$Comp
L R R?
U 1 1 59C040B5
P 8650 4900
F 0 "R?" V 8730 4900 50  0000 C CNN
F 1 "510k" V 8650 4900 50  0000 C CNN
F 2 "" V 8580 4900 30  0000 C CNN
F 3 "" H 8650 4900 30  0000 C CNN
	1    8650 4900
	1    0    0    -1  
$EndComp
Wire Wire Line
	8650 4750 8650 4600
Text Label 8650 5050 3    60   ~ 0
gnd
$Comp
L R R?
U 1 1 59C040BD
P 8400 4700
F 0 "R?" V 8480 4700 50  0000 C CNN
F 1 "1k" V 8400 4700 50  0000 C CNN
F 2 "" V 8330 4700 30  0000 C CNN
F 3 "" H 8400 4700 30  0000 C CNN
	1    8400 4700
	0    1    1    0   
$EndComp
Wire Wire Line
	8550 4700 8650 4700
Connection ~ 8650 4700
Text Label 6850 3350 3    60   ~ 0
photoresistor2
Text Label 8250 4700 2    60   ~ 0
pulse2
$Comp
L LM324 U?
U 3 1 59C048A3
P 5400 1250
F 0 "U?" H 5450 1450 60  0000 C CNN
F 1 "LM324" H 5550 1050 50  0000 C CNN
F 2 "" H 5400 1250 60  0000 C CNN
F 3 "" H 5400 1250 60  0000 C CNN
	3    5400 1250
	1    0    0    -1  
$EndComp
Text Label 5300 1650 0    60   ~ 0
gnd
Text Label 5300 850  0    60   ~ 0
3.3v
$Comp
L R R?
U 1 1 59C048AB
P 5300 1750
F 0 "R?" V 5380 1750 50  0000 C CNN
F 1 "R" V 5300 1750 50  0000 C CNN
F 2 "" V 5230 1750 30  0000 C CNN
F 3 "" H 5300 1750 30  0000 C CNN
	1    5300 1750
	0    1    1    0   
$EndComp
$Comp
L C C?
U 1 1 59C048B1
P 5300 2000
F 0 "C?" H 5325 2100 50  0000 L CNN
F 1 "C" H 5325 1900 50  0000 L CNN
F 2 "" H 5338 1850 30  0000 C CNN
F 3 "" H 5300 2000 60  0000 C CNN
	1    5300 2000
	0    1    1    0   
$EndComp
$Comp
L R R?
U 1 1 59C048B7
P 4750 2350
F 0 "R?" V 4830 2350 50  0000 C CNN
F 1 "R" V 4750 2350 50  0000 C CNN
F 2 "" V 4680 2350 30  0000 C CNN
F 3 "" H 4750 2350 30  0000 C CNN
	1    4750 2350
	1    0    0    -1  
$EndComp
Text Label 4750 2500 3    60   ~ 0
gnd
$Comp
L C C?
U 1 1 59C048BE
P 4500 1150
F 0 "C?" H 4525 1250 50  0000 L CNN
F 1 "1uf" H 4525 1050 50  0000 L CNN
F 2 "" H 4538 1000 30  0000 C CNN
F 3 "" H 4500 1150 60  0000 C CNN
	1    4500 1150
	0    1    1    0   
$EndComp
Wire Wire Line
	5150 1750 4750 1750
Wire Wire Line
	4750 1350 4750 2200
Wire Wire Line
	4750 1350 4900 1350
Wire Wire Line
	5900 1250 6000 1250
Wire Wire Line
	6000 1250 6000 2100
Wire Wire Line
	6000 1750 5450 1750
Wire Wire Line
	4750 2000 5150 2000
Connection ~ 4750 1750
Wire Wire Line
	6000 2000 5450 2000
Connection ~ 6000 1750
Connection ~ 4750 2000
Wire Wire Line
	4650 1150 4900 1150
$Comp
L R R?
U 1 1 59C048D0
P 3950 1150
F 0 "R?" V 4030 1150 50  0000 C CNN
F 1 "R" V 3950 1150 50  0000 C CNN
F 2 "" V 3880 1150 30  0000 C CNN
F 3 "" H 3950 1150 30  0000 C CNN
	1    3950 1150
	0    1    1    0   
$EndComp
Text Label 3800 1150 2    60   ~ 0
3.3v
Wire Wire Line
	4100 1150 4350 1150
$Comp
L C C?
U 1 1 59C048D8
P 6000 2250
F 0 "C?" H 6025 2350 50  0000 L CNN
F 1 "1uf" H 6025 2150 50  0000 L CNN
F 2 "" H 6038 2100 30  0000 C CNN
F 3 "" H 6000 2250 60  0000 C CNN
	1    6000 2250
	-1   0    0    1   
$EndComp
Connection ~ 6000 2000
$Comp
L R R?
U 1 1 59C048DF
P 6000 2700
F 0 "R?" V 6080 2700 50  0000 C CNN
F 1 "510k" V 6000 2700 50  0000 C CNN
F 2 "" V 5930 2700 30  0000 C CNN
F 3 "" H 6000 2700 30  0000 C CNN
	1    6000 2700
	1    0    0    -1  
$EndComp
Wire Wire Line
	6000 2550 6000 2400
Text Label 6000 2850 3    60   ~ 0
gnd
$Comp
L R R?
U 1 1 59C048E7
P 5750 2500
F 0 "R?" V 5830 2500 50  0000 C CNN
F 1 "1k" V 5750 2500 50  0000 C CNN
F 2 "" V 5680 2500 30  0000 C CNN
F 3 "" H 5750 2500 30  0000 C CNN
	1    5750 2500
	0    1    1    0   
$EndComp
Wire Wire Line
	5900 2500 6000 2500
Connection ~ 6000 2500
Text Label 4200 1150 3    60   ~ 0
photoresistor3
Text Label 5600 2500 2    60   ~ 0
pulse3
$Comp
L LM324 U?
U 4 1 59C048F1
P 5500 3400
F 0 "U?" H 5550 3600 60  0000 C CNN
F 1 "LM324" H 5650 3200 50  0000 C CNN
F 2 "" H 5500 3400 60  0000 C CNN
F 3 "" H 5500 3400 60  0000 C CNN
	4    5500 3400
	1    0    0    -1  
$EndComp
Text Label 5400 3800 0    60   ~ 0
gnd
Text Label 5400 3000 0    60   ~ 0
3.3v
$Comp
L R R?
U 1 1 59C048F9
P 5400 3900
F 0 "R?" V 5480 3900 50  0000 C CNN
F 1 "R" V 5400 3900 50  0000 C CNN
F 2 "" V 5330 3900 30  0000 C CNN
F 3 "" H 5400 3900 30  0000 C CNN
	1    5400 3900
	0    1    1    0   
$EndComp
$Comp
L C C?
U 1 1 59C048FF
P 5400 4150
F 0 "C?" H 5425 4250 50  0000 L CNN
F 1 "C" H 5425 4050 50  0000 L CNN
F 2 "" H 5438 4000 30  0000 C CNN
F 3 "" H 5400 4150 60  0000 C CNN
	1    5400 4150
	0    1    1    0   
$EndComp
$Comp
L R R?
U 1 1 59C04905
P 4850 4500
F 0 "R?" V 4930 4500 50  0000 C CNN
F 1 "R" V 4850 4500 50  0000 C CNN
F 2 "" V 4780 4500 30  0000 C CNN
F 3 "" H 4850 4500 30  0000 C CNN
	1    4850 4500
	1    0    0    -1  
$EndComp
Text Label 4850 4650 3    60   ~ 0
gnd
$Comp
L C C?
U 1 1 59C0490C
P 4600 3300
F 0 "C?" H 4625 3400 50  0000 L CNN
F 1 "1uf" H 4625 3200 50  0000 L CNN
F 2 "" H 4638 3150 30  0000 C CNN
F 3 "" H 4600 3300 60  0000 C CNN
	1    4600 3300
	0    1    1    0   
$EndComp
Wire Wire Line
	5250 3900 4850 3900
Wire Wire Line
	4850 3500 4850 4350
Wire Wire Line
	4850 3500 5000 3500
Wire Wire Line
	6000 3400 6100 3400
Wire Wire Line
	6100 3400 6100 4250
Wire Wire Line
	6100 3900 5550 3900
Wire Wire Line
	4850 4150 5250 4150
Connection ~ 4850 3900
Wire Wire Line
	6100 4150 5550 4150
Connection ~ 6100 3900
Connection ~ 4850 4150
Wire Wire Line
	4750 3300 5000 3300
$Comp
L R R?
U 1 1 59C0491E
P 4050 3300
F 0 "R?" V 4130 3300 50  0000 C CNN
F 1 "R" V 4050 3300 50  0000 C CNN
F 2 "" V 3980 3300 30  0000 C CNN
F 3 "" H 4050 3300 30  0000 C CNN
	1    4050 3300
	0    1    1    0   
$EndComp
Text Label 3900 3300 2    60   ~ 0
3.3v
Wire Wire Line
	4200 3300 4450 3300
$Comp
L C C?
U 1 1 59C04926
P 6100 4400
F 0 "C?" H 6125 4500 50  0000 L CNN
F 1 "1uf" H 6125 4300 50  0000 L CNN
F 2 "" H 6138 4250 30  0000 C CNN
F 3 "" H 6100 4400 60  0000 C CNN
	1    6100 4400
	-1   0    0    1   
$EndComp
Connection ~ 6100 4150
$Comp
L R R?
U 1 1 59C0492D
P 6100 4850
F 0 "R?" V 6180 4850 50  0000 C CNN
F 1 "510k" V 6100 4850 50  0000 C CNN
F 2 "" V 6030 4850 30  0000 C CNN
F 3 "" H 6100 4850 30  0000 C CNN
	1    6100 4850
	1    0    0    -1  
$EndComp
Wire Wire Line
	6100 4700 6100 4550
Text Label 6100 5000 3    60   ~ 0
gnd
$Comp
L R R?
U 1 1 59C04935
P 5850 4650
F 0 "R?" V 5930 4650 50  0000 C CNN
F 1 "1k" V 5850 4650 50  0000 C CNN
F 2 "" V 5780 4650 30  0000 C CNN
F 3 "" H 5850 4650 30  0000 C CNN
	1    5850 4650
	0    1    1    0   
$EndComp
Wire Wire Line
	6000 4650 6100 4650
Connection ~ 6100 4650
Text Label 4300 3300 3    60   ~ 0
photoresistor4
Text Label 5700 4650 2    60   ~ 0
pulse4
$Comp
L CONN_01X08 P?
U 1 1 59C05DEE
P 9850 1600
F 0 "P?" H 9850 2050 50  0000 C CNN
F 1 "SD card" V 9950 1600 50  0000 C CNN
F 2 "" H 9850 1600 60  0000 C CNN
F 3 "" H 9850 1600 60  0000 C CNN
	1    9850 1600
	1    0    0    -1  
$EndComp
NoConn ~ 9650 1950
NoConn ~ 9650 1250
Text Label 9650 1350 2    60   ~ 0
card_DO
Text Label 9650 1450 2    60   ~ 0
gnd
Text Label 9650 1550 2    60   ~ 0
card_CLK
Text Label 9650 1650 2    60   ~ 0
3.3v
Text Notes 10100 1800 1    60   ~ 0
2.7v – 3.6v
Text Label 9650 1750 2    60   ~ 0
card_DI
Text Label 9650 1850 2    60   ~ 0
card_CS
$EndSCHEMATC
